{
  "order": {
    "line_items": [
      {
        "id": "9af0a0b2b341f9910822722191b0b7ae",
        "key": "9af0a0b2b341f9910822722191b0b7ae",
        "product_id": 1499110015046,
        "variant_id": 13169916346438,
        "sku": "",
        "vendor": "yosephtesteu",
        "title": "Test prod",
        "variant_title": "",
        "image_url": "//cdn.shopify.com/s/assets/checkout/product-blank-98d4187c2152136e9fb0587a99dfcce6f6873f3a9f21ea9135ed7f495296090f.png",
        "taxable": true,
        "requires_shipping": true,
        "gift_card": false,
        "price": "10.00",
        "compare_at_price": null,
        "line_price": "10.00",
        "properties": {},
        "quantity": 1,
        "grams": 1000,
        "fulfillment_service": "manual",
        "applied_discounts": []
      }
    ],
    "tax_lines": [
      {
        "price": "1.60",
        "rate": 0.19,
        "title": "MwSt",
        "compare_at": 0.19
      }
    ],
    "shipping_lines": [
      {
        "code": "Standart Shipping",
        "price": "10.00",
        "source": "shopify",
        "title": "Standart Shipping",
        "tax_lines": [
          {
            "title": "State Tax",
            "price": "3.98",
            "rate": 0.06
          }
        ],
        "carrier_identifier": "third_party_carrier_identifier",
        "requested_fulfillment_service_id": "third_party_fulfillment_service_id"
      }
    ],
    "shipping_address": {
      "id": 1024810385478,
      "first_name": "Yoseph",
      "last_name": "Fernando",
      "phone": null,
      "company": null,
      "address1": "FC Bayern München AG Säbener Straße 51-57 D-81547 München",
      "address2": null,
      "city": "München",
      "province": null,
      "province_code": null,
      "country": "Germany",
      "country_code": "DE",
      "zip": "HRB 14"
    },
    "credit_card": null,
    "billing_address": {
      "id": 1024810385478,
      "first_name": "Yoseph",
      "last_name": "Fernando",
      "phone": null,
      "company": null,
      "address1": "FC Bayern München AG Säbener Straße 51-57 D-81547 München",
      "address2": null,
      "city": "München",
      "province": null,
      "province_code": null,
      "country": "Germany",
      "country_code": "DE",
      "zip": "HRB 14"
    },
    "transactions": [
      {
        "amount": "10.00",
        "kind": "capture",
        "status": "success",
        "currency": "USD",
        "gateway": "genericshop"
      }
    ]
  }
}